Nº: 1 - Data: 16-05-2017 - Produto: L- Glutamina 300g- New Millen 
Nº: 2 - Data: 16-05-2017 - Produto: Iron Nitro Pack 44packs - New Millen 
Nº: 3 - Data: 16-05-2017 - Produto: Thermo 300 Cafeina 120caps - New Millen 
Nº: 4 - Data: 16-05-2017 - Produto: Creatina Monohidratada 120caps - New Millen 
Nº: 5 - Data: 16-05-2017 - Produto: Creatina Monohidratada 150g - New Millen 
Nº: 6 - Data: 16-05-2017 - Produto: Creatina Monohidratada 300g - New Millen 
Nº: 7 - Data: 16-05-2017 - Produto: NO2 Expand Oxido Nitrico 120caps - New Millen 
Nº: 8 - Data: 16-05-2017 - Produto: Hmb 2400mg 120caps - New Millen 
Nº: 9 - Data: 16-05-2017 - Produto: Caffeine Thermo Fast 90caps - New Millen 
Nº: 10 - Data: 16-05-2017 - Produto: Cromo Picolinato 100caps - New Millen 
Nº: 11 - Data: 16-05-2017 - Produto: Animal Pak 30 packs - Universal 
Nº: 12 - Data: 16-05-2017 - Produto: Bcaa Complex 2200 Time Release 200tabs - Dymatize  
Nº: 13 - Data: 16-05-2017 - Produto: Bcaa Complex 2200 Time Release 400tabs - Dymatize 
Nº: 14 - Data: 16-05-2017 - Produto: Bcaa 1000 200caps - Optimum Nutrition 
Nº: 15 - Data: 16-05-2017 - Produto: Bcaa 1000 400caps - Optimum Nutrition 
Nº: 16 - Data: 16-05-2017 - Produto: Bcaa Pro 100caps - Universal 
Nº: 17 - Data: 16-05-2017 - Produto: Creatina 120g - Universal 
Nº: 18 - Data: 16-05-2017 - Produto: Creatina 300g - Dymatize 
Nº: 19 - Data: 16-05-2017 - Produto: Creatina Powder 150g - Optimum Nutrition 
Nº: 20 - Data: 16-05-2017 - Produto: Creatina Powder 300g - Optimum Nutrition 
Nº: 21 - Data: 16-05-2017 - Produto: Daily Formula 100tbs - Universal 
Nº: 22 - Data: 16-05-2017 - Produto: Elite Gourmet 900g - Dymatize 
Nº: 23 - Data: 16-05-2017 - Produto: Gh Max 180tbs - Universal 
Nº: 24 - Data: 16-05-2017 - Produto: Glutamina Powder 150g - Optimum Nutrition 
Nº: 25 - Data: 16-05-2017 - Produto: Glutamina Powder 300g - Optimum Nutrition 
Nº: 26 - Data: 16-05-2017 - Produto: NOX3 180tbs - Universal 
Nº: 27 - Data: 16-05-2017 - Produto: Ripped Fast 120caps - Universal 
Nº: 28 - Data: 16-05-2017 - Produto: Trac Hardcore 386g - MHP 
Nº: 29 - Data: 16-05-2017 - Produto: X Fit Trainer 226g - MHP 
Nº: 30 - Data: 16-05-2017 - Produto: Chromium Picolinate 90caps - VitaminLife 
Nº: 31 - Data: 16-05-2017 - Produto: Diarium 120 comprimidos - VitaminLife 
Nº: 32 - Data: 16-05-2017 - Produto: Glutamina Science Recovery 300g - Performance 
Nº: 33 - Data: 16-05-2017 - Produto: GlutaLean 500g - Labrada 
Nº: 34 - Data: 16-05-2017 - Produto: HMB 120caps - Arnold Nutrition 
Nº: 35 - Data: 16-05-2017 - Produto: Joint Max 120caps - Arnold Nutrition 
Nº: 36 - Data: 16-05-2017 - Produto: L-Carnitine 1000mg 60caps - Arnold Nutrition 
Nº: 37 - Data: 16-05-2017 - Produto: Lean Tea 120caps - Arnold Nutrition 
Nº: 38 - Data: 16-05-2017 - Produto: Lipo Cut Hardcore 60 caps - Arnold Nutrition 
Nº: 39 - Data: 16-05-2017 - Produto: Lipo Cut X Hers 120caps - Arnold Nutrition 
Nº: 40 - Data: 16-05-2017 - Produto: Lipo Cut X 120caps - Arnold Nutrition 
Nº: 41 - Data: 16-05-2017 - Produto: Oxylin Pro 90caps - Arnold Nutrition 
Nº: 42 - Data: 16-05-2017 - Produto: Ripped Extreme Red 160caps - Atlhetica Nutrition 
Nº: 43 - Data: 16-05-2017 - Produto: Ripped Extreme Yellow 120caps - Atlhetica Nutrition 
Nº: 44 - Data: 16-05-2017 - Produto: Thermo Fire Hardcore 120tbs - Arnold Nutrition 
Nº: 45 - Data: 16-05-2017 - Produto: Thermo Fire 120tbs - Arnold Nutrition 
Nº: 46 - Data: 16-05-2017 - Produto: Vita Plate 60tbs - Arnold Nutrition 
Nº: 47 - Data: 16-05-2017 - Produto: Yellow Hornet 100caps - Stacker 2 
Nº: 48 - Data: 16-05-2017 - Produto: Zma Tst Booster 60caps - Arnold Nutrition 
Nº: 49 - Data: 16-05-2017 - Produto: Luva Sliper 2 - Rudel 
Nº: 50 - Data: 16-05-2017 - Produto: Halter Strap - Rudel 
Nº: 51 - Data: 16-05-2017 - Produto: Tala Straps - Rudel 
Nº: 52 - Data: 16-05-2017 - Produto: Munhequeira - Rudel 
Nº: 53 - Data: 16-05-2017 - Produto: Luva Boxe 10 Oz - Rudel 
Nº: 54 - Data: 16-05-2017 - Produto: Luva Boxe 12 Oz - Rudel 
Nº: 55 - Data: 16-05-2017 - Produto: Luva Boxe 14 Oz - Rudel 
Nº: 56 - Data: 16-05-2017 - Produto: Luva Boxe 16 Oz - Rudel 
Nº: 57 - Data: 16-05-2017 - Produto: Protetor Bucal Dualcolor C/ Estojo - Rudel 
Nº: 58 - Data: 16-05-2017 - Produto: Protetor Bucal Dualcolor S/ Estojo - Rudel 
Nº: 59 - Data: 16-05-2017 - Produto: Protetor Bucal Duplo S/ Estojo - Rudel 
Nº: 60 - Data: 16-05-2017 - Produto: Protetor Bucal Duplo C/ Estojo - Rudel 
Nº: 61 - Data: 16-05-2017 - Produto: Protetor Bucal C/ Estojo - Rudel 
Nº: 62 - Data: 16-05-2017 - Produto: Protetor Bucal S/ Estojo - Rudel 
Nº: 63 - Data: 16-05-2017 - Produto: Bandagem Elastica Rudel 
Nº: 64 - Data: 16-05-2017 - Produto: Colageno Hidrolisado 250g - Meissen 
Nº: 65 - Data: 16-05-2017 - Produto: Oxylin Pro 7caps - Arnold Nutrition 
Nº: 66 - Data: 16-05-2017 - Produto: Glutamina Powder 600g - Optimum Nutrition 
Nº: 67 - Data: 16-05-2017 - Produto: Glutamina Science Recovery 1000g - Performance 
Nº: 68 - Data: 16-05-2017 - Produto: Omega3 1000mg Fish Oil 120caps - VitaminLife 
Nº: 69 - Data: 16-05-2017 - Produto: Zinco Chelado 90caps - VitaminLife 
Nº: 70 - Data: 16-05-2017 - Produto: Testo HD 150g - Arnold Nutrition 
Nº: 71 - Data: 16-05-2017 - Produto: Lipo 6 Caffeine 60caps - Nutrex Research 
Nº: 72 - Data: 16-05-2017 - Produto: Vitamina C 1000 100 comprimidos - Sundown 
Nº: 73 - Data: 16-05-2017 - Produto: Vitamina E 400 100 comprimidos - Sundown 
Nº: 74 - Data: 16-05-2017 - Produto: Vitamia E 1000 30 comprimidos - Sundown 
Nº: 75 - Data: 16-05-2017 - Produto: Vitamina E 1000 50 comprimidos - Sundown 
Nº: 76 - Data: 16-05-2017 - Produto: OxyElite Pro 60caps - USP LABS   
Nº: 77 - Data: 16-05-2017 - Produto: B Complex 90caps - VitaminLife 
Nº: 78 - Data: 16-05-2017 - Produto: NOXI2 90tbs - Arnold Nutrition 
Nº: 79 - Data: 16-05-2017 - Produto: NOXI2 180tbs - Arnold Nutrition 
Nº: 80 - Data: 16-05-2017 - Produto: Gh Pro 100tbs - Arnold Nutrition 
Nº: 81 - Data: 16-05-2017 - Produto: Gh Pro 200tbs - Arnold Nutrition 
Nº: 82 - Data: 16-05-2017 - Produto: NO3 Beef 100tbs - Arnold Nutrition 
Nº: 83 - Data: 16-05-2017 - Produto: Chromium Picolinate 100caps - Universal 
Nº: 84 - Data: 16-05-2017 - Produto: Bcaa Concentrado AGE 120caps - Nutrilatina 
Nº: 85 - Data: 16-05-2017 - Produto: Bcaa Concentrado AGE 240caps - Nutrilatina 
Nº: 86 - Data: 16-05-2017 - Produto: Bcaa Ultraconcentrado AGE 120tbs - Nutrilatina 
Nº: 87 - Data: 16-05-2017 - Produto: Bcaa Ultraconcentrado AGE 240tbs - Nutrilatina 
Nº: 88 - Data: 16-05-2017 - Produto: Power Bcaa 120caps - New Millen 
Nº: 89 - Data: 16-05-2017 - Produto: Brutal Force 240caps - New Millen 
Nº: 90 - Data: 16-05-2017 - Produto: Zma Cr 100caps - New Millen 
Nº: 91 - Data: 16-05-2017 - Produto: IGF 1 Hgh 150ml - New Millen  
Nº: 92 - Data: 16-05-2017 - Produto: Leucine e Hmb Double 2000mg 120tbs - New Millen 
Nº: 93 - Data: 16-05-2017 - Produto: Creatina Ethyl Ester 60tbs - New Millen 
Nº: 94 - Data: 16-05-2017 - Produto: LipoFat Perfect Woman 120caps - New Millen  
Nº: 95 - Data: 16-05-2017 - Produto: Bcaa Power 4800 120tbs - New Millen 
Nº: 96 - Data: 16-05-2017 - Produto: Bcaa 1000 60caps Optimum Nutrition 
Nº: 97 - Data: 16-05-2017 - Produto: Alert 8-Hour - 100 tablets - MHP 
Nº: 98 - Data: 16-05-2017 - Produto: BCAA 3300 Timed Release - 120 tabletes - MHP 
Nº: 99 - Data: 16-05-2017 - Produto: Creatina Pura Micronizada 150gr - Nutraforce 
Nº: 100 - Data: 16-05-2017 - Produto: Creatina Pura Micronizada 300gr - Nutraforce 
Nº: 101 - Data: 16-05-2017 - Produto: Glutamina Pura 150gr - Nutraforce 
Nº: 102 - Data: 16-05-2017 - Produto: Thermo Force Black 120caps - Nutraforce 
Nº: 103 - Data: 16-05-2017 - Produto: Glutamina Pura 300gr - Nutraforce 
Nº: 104 - Data: 16-05-2017 - Produto: NO X-Force (AAKG + Taurina) 120caps - Nutraforce 
Nº: 105 - Data: 16-05-2017 - Produto: Multimax Complex 90caps - Max Titanium 
Nº: 106 - Data: 16-05-2017 - Produto: M-Tor Leucine 100gr - Max Titanium 
Nº: 107 - Data: 16-05-2017 - Produto: Zma 90caps  - Now Food 
Nº: 108 - Data: 16-05-2017 - Produto: 100% Pura Batata Doce Refil (1Kg) - Atlhetica Nutrition 
Nº: 109 - Data: 16-05-2017 - Produto: Methyldrene 25 - Cloma Pharma 
Nº: 110 - Data: 16-05-2017 - Produto: X TEA (20 sticks) - Atlhetica Nutrition 
Nº: 111 - Data: 16-05-2017 - Produto: FIRST Pasta de Amendoim com Whey Protein 500g - Santa Helena 
Nº: 112 - Data: 16-05-2017 - Produto: AmendoWhey 400gr - New Millen 
Nº: 113 - Data: 16-05-2017 - Produto: Beta HD Extreme Intense (180g) - Atlhetica Nutrition 
Nº: 114 - Data: 16-05-2017 - Produto: Caffeinex 420mg (60 caps) - Atlhetica Nutrition 
Nº: 115 - Data: 16-05-2017 - Produto: Ella Collagen Caps (120 caps) - Atlhetica Nutrition 
Nº: 116 - Data: 16-05-2017 - Produto: 100% Pure Waxy Maize Refil (1Kg) - Atlhetica Nutrition 
Nº: 117 - Data: 16-05-2017 - Produto: 100% Pure Waxy Maize (2Kg) - Atlhetica Nutrition 
Nº: 118 - Data: 16-05-2017 - Produto: L-Carnitine 1000 (60 tabletes) - Atlhetica Nutrition 
Nº: 119 - Data: 16-05-2017 - Produto: Glutamine Micronized (1Kg) - Dymatize Nutrition 
Nº: 120 - Data: 16-05-2017 - Produto: Glutamine Micronized (300g) - Dymatize Nutrition 
Nº: 121 - Data: 16-05-2017 - Produto: Creatina Micronizada Monohidratada (300g) - Atlhetica Nutrition 
Nº: 122 - Data: 16-05-2017 - Produto: Complete Multi-Vit (100 tabletes) - Atlhetica Nutrition 
Nº: 123 - Data: 16-05-2017 - Produto: Bcaa Powder 2:1:1 (210g) - Atlhetica Nutrition 
Nº: 124 - Data: 16-05-2017 - Produto: Bcaa Powder 2:1:1 (210g) - Atlhetica Nutrition  
Nº: 125 - Data: 16-05-2017 - Produto: Ribose Powder (300g) - Performance 
Nº: 126 - Data: 16-05-2017 - Produto: Shred Thermax Science (90 tabletes) - Performance Nutrition 
Nº: 127 - Data: 16-05-2017 - Produto: Choco Cream Super Protein (24 unidades) - Trio 
Nº: 128 - Data: 16-05-2017 - Produto: Pasta de Amendoim Integral Crocante (1kg) - El Shaddai 
Nº: 129 - Data: 16-05-2017 - Produto: Bcaa Premium Series (120 tabletes) - New Millen 
Nº: 130 - Data: 16-05-2017 - Produto: Creatina  Titanium (300g) - Max Titanium 
Nº: 131 - Data: 16-05-2017 - Produto: Pasta de Amendoim Integral (1,05Kg) - Power One 
Nº: 132 - Data: 16-05-2017 - Produto: Pasta de Amendoim Integral (com granulado de amendoim) 1,05Kg - Power One   
Nº: 133 - Data: 16-05-2017 - Produto: Nitric Max Amino Science (180 tabletes) - Performance 
Nº: 134 - Data: 16-05-2017 - Produto: Palatinose (300g) - Max Titanium 
Nº: 135 - Data: 16-05-2017 - Produto: Platinum BCAA 8:1:1 (200 tabletes) - Muscletech 
Nº: 136 - Data: 16-05-2017 - Produto: Brigadeiro Proteico (500g) - Power One 
Nº: 137 - Data: 16-05-2017 - Produto: T_SEK 
Nº: 138 - Data: 16-05-2017 - Produto: Kit Emagrecedor Sineflex + T_Sek 
Nº: 139 - Data: 16-05-2017 - Produto: Kit Emagrecimento Feminino Atlhetica 
Nº: 140 - Data: 16-05-2017 - Produto: Somatodrol (30 comprimidos) - Iridium Labs 
Nº: 141 - Data: 16-05-2017 - Produto: Diurox (148g) - New Millen 
Nº: 142 - Data: 16-05-2017 - Produto: Creatina Titanium 150g - Max Titanium 
Nº: 143 - Data: 16-05-2017 - Produto: Bcaa Premium Series 240tbs - New Millen 
Nº: 144 - Data: 16-05-2017 - Produto: Coqueteleira Nutraforce (600ml) 
Nº: 145 - Data: 16-05-2017 - Produto: Creatina (300g) Black Line - Optimum Nutrition 
Nº: 146 - Data: 16-05-2017 - Produto: Creatina Black Line (150g) - Optimum Nutrition 
Nº: 147 - Data: 16-05-2017 - Produto: Combo Auxilio Ganho de Massa Muscular 
