Nº: 1 - Data: 17-05-2017 - Produto: Creatina Creapure 400gr - Probiótica 
Nº: 2 - Data: 17-05-2017 - Produto: L-carnitine 120caps - Probiótica 
Nº: 3 - Data: 17-05-2017 - Produto: Creatina Pura 100g - Probiótica 
Nº: 4 - Data: 17-05-2017 - Produto: Creatina Pura 300g - Probiótica 
Nº: 5 - Data: 17-05-2017 - Produto: Creatina Pura 180caps -Probiótica 
Nº: 6 - Data: 17-05-2017 - Produto: Xplode Nitric Oxide 120caps - Probiótica 
Nº: 7 - Data: 17-05-2017 - Produto: Ripp Abs 120caps - Probiótica 
Nº: 8 - Data: 17-05-2017 - Produto: Megabolic Super NO2 30packs - Probiótica 
Nº: 9 - Data: 17-05-2017 - Produto: Monster Nitro Pack NO2 44packs - Probiótica 
Nº: 10 - Data: 17-05-2017 - Produto: Amino Power Plus 60tbs - Probiótica 
Nº: 11 - Data: 17-05-2017 - Produto: Amino Power Plus 150tbs - Probiótica 
Nº: 12 - Data: 17-05-2017 - Produto: Amino Power Plus 300tbs - Probiótica 
Nº: 13 - Data: 17-05-2017 - Produto: Monster Extreme Black 44packs - Probiótica 
Nº: 14 - Data: 17-05-2017 - Produto: Thermogenic Extreme Black 120caps - Probiótica 
Nº: 15 - Data: 17-05-2017 - Produto: Dextrose 1000g - Probiótica 
Nº: 16 - Data: 17-05-2017 - Produto: Bcaa 2400 Millennium 60tbs - Probiótica 
Nº: 17 - Data: 17-05-2017 - Produto: Bcaa 2400 Millenium 120tbs - Probiótica 
Nº: 18 - Data: 17-05-2017 - Produto: L-Glutamina 120g - Probiótica 
Nº: 19 - Data: 17-05-2017 - Produto: L-Glutamina 300g - Probiótica 
Nº: 20 - Data: 17-05-2017 - Produto: Zma Power 90caps - Probiótica 
Nº: 21 - Data: 17-05-2017 - Produto: Chromium Picolinate 100caps - Probiótica 
Nº: 22 - Data: 17-05-2017 - Produto: L- Glutamina 300g- New Millen 
Nº: 23 - Data: 17-05-2017 - Produto: Iron Nitro Pack 44packs - New Millen 
Nº: 24 - Data: 17-05-2017 - Produto: Thermo 300 Cafeina 120caps - New Millen 
Nº: 25 - Data: 17-05-2017 - Produto: CL Óleo de Cártamo 120caps - New Millen 
Nº: 26 - Data: 17-05-2017 - Produto: Creatina Monohidratada 120caps - New Millen 
Nº: 27 - Data: 17-05-2017 - Produto: Creatina Monohidratada 150g - New Millen 
Nº: 28 - Data: 17-05-2017 - Produto: Creatina Monohidratada 300g - New Millen 
Nº: 29 - Data: 17-05-2017 - Produto: NO2 Expand Oxido Nitrico 120caps - New Millen 
Nº: 30 - Data: 17-05-2017 - Produto: Hmb 2400mg 120caps - New Millen 
Nº: 31 - Data: 17-05-2017 - Produto: Caffeine Thermo Fast 90caps - New Millen 
Nº: 32 - Data: 17-05-2017 - Produto: Cromo Picolinato 100caps - New Millen 
Nº: 33 - Data: 17-05-2017 - Produto: Albumix 120tbs - Integralmédica 
Nº: 34 - Data: 17-05-2017 - Produto: Albumix 240tbs - Integralmédica 
Nº: 35 - Data: 17-05-2017 - Produto: Amino Bcaa Top 3800mg 120caps - Integralmédica 
Nº: 36 - Data: 17-05-2017 - Produto: Amino Bcaa Top 3800mg 240caps - Integralmédica 
Nº: 37 - Data: 17-05-2017 - Produto: Creatina Hardcore Reload 150g - Integralmédica 
Nº: 38 - Data: 17-05-2017 - Produto: Creatina Hardcore Reload 300g - Integralmédica 
Nº: 39 - Data: 17-05-2017 - Produto: L-Carnetina 60caps - Integralmédica 
Nº: 40 - Data: 17-05-2017 - Produto: L-Drol 60caps - Integralmédica 
Nº: 41 - Data: 17-05-2017 - Produto: Therma Pro Hardcore 60caps - Integralmédica 
Nº: 42 - Data: 17-05-2017 - Produto: Therma Pro Hardcore 120caps - Integralmédica 
Nº: 43 - Data: 17-05-2017 - Produto: Bcaa Fix Darkness 120tbs - Integralmédica 
Nº: 44 - Data: 17-05-2017 - Produto: Bcaa Fix Darkness 400tbs - Integralmédica 
Nº: 45 - Data: 17-05-2017 - Produto: Gh - Testo 21packs - Integralmédica 
Nº: 46 - Data: 17-05-2017 - Produto: Mega Pack Hardcore 30packs - Integralmédica 
Nº: 47 - Data: 17-05-2017 - Produto: NOS Vasodilatador 160tbs - Integralmédica 
Nº: 48 - Data: 17-05-2017 - Produto: Testo Fuel Darkness 120tbs - Integralmédica 
Nº: 49 - Data: 17-05-2017 - Produto: Animal Pak 30 packs - Universal 
Nº: 50 - Data: 17-05-2017 - Produto: Bcaa Complex 2200 Time Release 200tabs - Dymatize  
Nº: 51 - Data: 17-05-2017 - Produto: Bcaa Complex 2200 Time Release 400tabs - Dymatize 
Nº: 52 - Data: 17-05-2017 - Produto: Bcaa 1000 200caps - Optimum Nutrition 
Nº: 53 - Data: 17-05-2017 - Produto: Bcaa 1000 400caps - Optimum Nutrition 
Nº: 54 - Data: 17-05-2017 - Produto: Bcaa Pro 100caps - Universal 
Nº: 55 - Data: 17-05-2017 - Produto: Creatina 120g - Universal 
Nº: 56 - Data: 17-05-2017 - Produto: Creatina 300g - Dymatize 
Nº: 57 - Data: 17-05-2017 - Produto: Creatina Powder 150g - Optimum Nutrition 
Nº: 58 - Data: 17-05-2017 - Produto: Creatina Powder 300g - Optimum Nutrition 
Nº: 59 - Data: 17-05-2017 - Produto: Daily Formula 100tbs - Universal 
Nº: 60 - Data: 17-05-2017 - Produto: Elite Gourmet 900g - Dymatize 
Nº: 61 - Data: 17-05-2017 - Produto: Gh Max 180tbs - Universal 
Nº: 62 - Data: 17-05-2017 - Produto: Glutamina Powder 150g - Optimum Nutrition 
Nº: 63 - Data: 17-05-2017 - Produto: Glutamina Powder 300g - Optimum Nutrition 
Nº: 64 - Data: 17-05-2017 - Produto: NOX3 180tbs - Universal 
Nº: 65 - Data: 17-05-2017 - Produto: Ômega For EPA/DHA 60caps - Vitafor 
Nº: 66 - Data: 17-05-2017 - Produto: Ripped Fast 120caps - Universal 
Nº: 67 - Data: 17-05-2017 - Produto: Trac Hardcore 386g - MHP 
Nº: 68 - Data: 17-05-2017 - Produto: X Fit Trainer 226g - MHP 
Nº: 69 - Data: 17-05-2017 - Produto: XPel 20 sachês - MHP 
Nº: 70 - Data: 17-05-2017 - Produto: Chromium Picolinate 90caps - VitaminLife 
Nº: 71 - Data: 17-05-2017 - Produto: Diarium 120 comprimidos - VitaminLife 
Nº: 72 - Data: 17-05-2017 - Produto: Glutamina Science Recovery 300g - Performance 
Nº: 73 - Data: 17-05-2017 - Produto: GlutaLean 500g - Labrada 
Nº: 74 - Data: 17-05-2017 - Produto: HMB 120caps - Arnold Nutrition 
Nº: 75 - Data: 17-05-2017 - Produto: Joint Max 120caps - Arnold Nutrition 
Nº: 76 - Data: 17-05-2017 - Produto: L-Carnitine 1000mg 60caps - Arnold Nutrition 
Nº: 77 - Data: 17-05-2017 - Produto: Lean Tea 120caps - Arnold Nutrition 
Nº: 78 - Data: 17-05-2017 - Produto: Lipo Cut Hardcore 60 caps - Arnold Nutrition 
Nº: 79 - Data: 17-05-2017 - Produto: Lipo Cut X Hers 120caps - Arnold Nutrition 
Nº: 80 - Data: 17-05-2017 - Produto: Lipo Cut X 120caps - Arnold Nutrition 
Nº: 81 - Data: 17-05-2017 - Produto: Oxylin Pro 90caps - Arnold Nutrition 
Nº: 82 - Data: 17-05-2017 - Produto: Ripped Extreme Red 160caps - Atlhetica Nutrition 
Nº: 83 - Data: 17-05-2017 - Produto: Ripped Extreme Yellow 120caps - Atlhetica Nutrition 
Nº: 84 - Data: 17-05-2017 - Produto: Thermo Fire Hardcore 120tbs - Arnold Nutrition 
Nº: 85 - Data: 17-05-2017 - Produto: Thermo Fire 120tbs - Arnold Nutrition 
Nº: 86 - Data: 17-05-2017 - Produto: VitaCa Óleo de Cártamo 120caps - Vitalab 
Nº: 87 - Data: 17-05-2017 - Produto: Vita Plate 60tbs - Arnold Nutrition 
Nº: 88 - Data: 17-05-2017 - Produto: Yellow Hornet 100caps - Stacker 2 
Nº: 89 - Data: 17-05-2017 - Produto: Zma Tst Booster 60caps - Arnold Nutrition 
Nº: 90 - Data: 17-05-2017 - Produto: Luva Sliper 2 - Rudel 
Nº: 91 - Data: 17-05-2017 - Produto: Halter Strap - Rudel 
Nº: 92 - Data: 17-05-2017 - Produto: Tala Straps - Rudel 
Nº: 93 - Data: 17-05-2017 - Produto: Munhequeira - Rudel 
Nº: 94 - Data: 17-05-2017 - Produto: Luva Boxe 10 Oz - Rudel 
Nº: 95 - Data: 17-05-2017 - Produto: Luva Boxe 12 Oz - Rudel 
Nº: 96 - Data: 17-05-2017 - Produto: Luva Boxe 14 Oz - Rudel 
Nº: 97 - Data: 17-05-2017 - Produto: Luva Boxe 16 Oz - Rudel 
Nº: 98 - Data: 17-05-2017 - Produto: Protetor Bucal Dualcolor C/ Estojo - Rudel 
Nº: 99 - Data: 17-05-2017 - Produto: Protetor Bucal Dualcolor S/ Estojo - Rudel 
Nº: 100 - Data: 17-05-2017 - Produto: Protetor Bucal Duplo S/ Estojo - Rudel 
Nº: 101 - Data: 17-05-2017 - Produto: Protetor Bucal Duplo C/ Estojo - Rudel 
Nº: 102 - Data: 17-05-2017 - Produto: Protetor Bucal C/ Estojo - Rudel 
Nº: 103 - Data: 17-05-2017 - Produto: Protetor Bucal S/ Estojo - Rudel 
Nº: 104 - Data: 17-05-2017 - Produto: Bandagem Elastica Rudel 
Nº: 105 - Data: 17-05-2017 - Produto: Colageno Hidrolisado 250g - Meissen 
Nº: 106 - Data: 17-05-2017 - Produto: Creatina Creapure 150g - Probiótica 
Nº: 107 - Data: 17-05-2017 - Produto: Oxylin Pro 7caps - Arnold Nutrition 
Nº: 108 - Data: 17-05-2017 - Produto: Glutamina Powder 600g - Optimum Nutrition 
Nº: 109 - Data: 17-05-2017 - Produto: Black Bee Cafeína 60caps - Probiótica 
Nº: 110 - Data: 17-05-2017 - Produto: Glutamina Science Recovery 1000g - Performance 
Nº: 111 - Data: 17-05-2017 - Produto: Omega3 1000mg Fish Oil 120caps - VitaminLife 
Nº: 112 - Data: 17-05-2017 - Produto: Zinco Chelado 90caps - VitaminLife 
Nº: 113 - Data: 17-05-2017 - Produto: Flaxseed Oil 1000mg Óleo linhaça 100caps - VitaminLife 
Nº: 114 - Data: 17-05-2017 - Produto: Evening Primose 500mg Oléo de Primula 45 caps - VitaminLife 
Nº: 115 - Data: 17-05-2017 - Produto: Testo HD 150g - Arnold Nutrition 
Nº: 116 - Data: 17-05-2017 - Produto: Lipo 6 Caffeine 60caps - Nutrex Research 
Nº: 117 - Data: 17-05-2017 - Produto: Vitamina C 1000 100 comprimidos - Sundown 
Nº: 118 - Data: 17-05-2017 - Produto: Vitamina E 400 100 comprimidos - Sundown 
Nº: 119 - Data: 17-05-2017 - Produto: Vitamia E 1000 30 comprimidos - Sundown 
Nº: 120 - Data: 17-05-2017 - Produto: Vitamina E 1000 50 comprimidos - Sundown 
Nº: 121 - Data: 17-05-2017 - Produto: OxyElite Pro 60caps - USP LABS   
Nº: 122 - Data: 17-05-2017 - Produto: B Complex 90caps - VitaminLife 
Nº: 123 - Data: 17-05-2017 - Produto: NOXI2 90tbs - Arnold Nutrition 
Nº: 124 - Data: 17-05-2017 - Produto: NOXI2 180tbs - Arnold Nutrition 
Nº: 125 - Data: 17-05-2017 - Produto: Gh Pro 100tbs - Arnold Nutrition 
Nº: 126 - Data: 17-05-2017 - Produto: Gh Pro 200tbs - Arnold Nutrition 
Nº: 127 - Data: 17-05-2017 - Produto: NO3 Beef 100tbs - Arnold Nutrition 
Nº: 128 - Data: 17-05-2017 - Produto: Chromium Picolinate 100caps - Universal 
Nº: 129 - Data: 17-05-2017 - Produto: Guaraná 120caps - Meissen 
Nº: 130 - Data: 17-05-2017 - Produto: Bcaa Concentrado AGE 120caps - Nutrilatina 
Nº: 131 - Data: 17-05-2017 - Produto: Bcaa Concentrado AGE 240caps - Nutrilatina 
Nº: 132 - Data: 17-05-2017 - Produto: Bcaa Ultraconcentrado AGE 120tbs - Nutrilatina 
Nº: 133 - Data: 17-05-2017 - Produto: Bcaa Ultraconcentrado AGE 240tbs - Nutrilatina 
Nº: 134 - Data: 17-05-2017 - Produto: Pro Bcaa Bound 60caps - Probiótica 
Nº: 135 - Data: 17-05-2017 - Produto: Power Bcaa 120caps - New Millen 
Nº: 136 - Data: 17-05-2017 - Produto: Pro Bcaa Bound 120caps - Probiótica 
Nº: 137 - Data: 17-05-2017 - Produto: Pro Bcaa Bound 200caps - Probiótica 
Nº: 138 - Data: 17-05-2017 - Produto: Bcaa Plus 800mg 120caps - Probiótica 
Nº: 139 - Data: 17-05-2017 - Produto: Bcaa Plus 800mg 240caps - Probiótica 
Nº: 140 - Data: 17-05-2017 - Produto: Brutal Force 240caps - New Millen 
Nº: 141 - Data: 17-05-2017 - Produto: Zma Cr 100caps - New Millen 
Nº: 142 - Data: 17-05-2017 - Produto: IGF 1 Hgh 150ml - New Millen  
Nº: 143 - Data: 17-05-2017 - Produto: Leucine e Hmb Double 2000mg 120tbs - New Millen 
Nº: 144 - Data: 17-05-2017 - Produto: Creatina Ethyl Ester 60tbs - New Millen 
Nº: 145 - Data: 17-05-2017 - Produto: LipoFat Perfect Woman 120caps - New Millen  
Nº: 146 - Data: 17-05-2017 - Produto: Óleo de Peixe Ômega 3 60caps - New Millen 
Nº: 147 - Data: 17-05-2017 - Produto: Óleo de Primula 60caps - New Millen 
Nº: 148 - Data: 17-05-2017 - Produto: Bcaa Power 4800 120tbs - New Millen 
Nº: 149 - Data: 17-05-2017 - Produto: Bcaa 1000 60caps Optimum Nutrition 
Nº: 150 - Data: 17-05-2017 - Produto: Pasta Whey - Macarrão integral protéico 400g - Integralmédica 
Nº: 151 - Data: 17-05-2017 - Produto: Glutamina (300g) - Integralmédica 
Nº: 152 - Data: 17-05-2017 - Produto: Coqueteleira três doses - Integralmédica 
Nº: 153 - Data: 17-05-2017 - Produto: Coqueteleira (450ml) duas doses - Integralmédica 
Nº: 154 - Data: 17-05-2017 - Produto: Alert 8-Hour - 100 tablets - MHP 
Nº: 155 - Data: 17-05-2017 - Produto: BCAA 3300 Timed Release - 120 tabletes - MHP 
Nº: 156 - Data: 17-05-2017 - Produto: Creatina Pura Micronizada 150gr - Nutraforce 
Nº: 157 - Data: 17-05-2017 - Produto: Creatina Pura Micronizada 300gr - Nutraforce 
Nº: 158 - Data: 17-05-2017 - Produto: Glutamina Pura 150gr - Nutraforce 
Nº: 159 - Data: 17-05-2017 - Produto: Thermo Force Black 120caps - Nutraforce 
Nº: 160 - Data: 17-05-2017 - Produto: Glutamina Pura 300gr - Nutraforce 
Nº: 161 - Data: 17-05-2017 - Produto: NO X-Force (AAKG + Taurina) 120caps - Nutraforce 
Nº: 162 - Data: 17-05-2017 - Produto: Multimax Complex 90caps - Max Titanium 
Nº: 163 - Data: 17-05-2017 - Produto: M-Tor Leucine 100gr - Max Titanium 
Nº: 164 - Data: 17-05-2017 - Produto: Zma 90caps  - Now Food 
Nº: 165 - Data: 17-05-2017 - Produto: 100% Pura Batata Doce Refil (1Kg) - Atlhetica Nutrition 
Nº: 166 - Data: 17-05-2017 - Produto: Methyldrene 25 - Cloma Pharma 
Nº: 167 - Data: 17-05-2017 - Produto: X TEA (20 sticks) - Atlhetica Nutrition 
Nº: 168 - Data: 17-05-2017 - Produto: FIRST Pasta de Amendoim com Whey Protein 500g - Santa Helena 
Nº: 169 - Data: 17-05-2017 - Produto: AmendoWhey 400gr - New Millen 
Nº: 170 - Data: 17-05-2017 - Produto: Energy Now 60 cápsulas - Atlhetica Nutrition 
Nº: 171 - Data: 17-05-2017 - Produto: Beta HD Extreme Intense (180g) - Atlhetica Nutrition 
Nº: 172 - Data: 17-05-2017 - Produto: Caffeinex 420mg (60 caps) - Atlhetica Nutrition 
Nº: 173 - Data: 17-05-2017 - Produto: Ella Collagen Caps (120 caps) - Atlhetica Nutrition 
Nº: 174 - Data: 17-05-2017 - Produto: Dilatech (160 cáp) - Atlhetica Nutrition 
Nº: 175 - Data: 17-05-2017 - Produto: 100% Pure Waxy Maize Refil (1Kg) - Atlhetica Nutrition 
Nº: 176 - Data: 17-05-2017 - Produto: 100% Pure Waxy Maize (2Kg) - Atlhetica Nutrition 
Nº: 177 - Data: 17-05-2017 - Produto: Cramp Block - Endurance Series (60 cápsulas) - Atlhetica Nutrition 
Nº: 178 - Data: 17-05-2017 - Produto: L-Carnitine 1000 (60 tabletes) - Atlhetica Nutrition 
Nº: 179 - Data: 17-05-2017 - Produto: Glutamine Micronized (1Kg) - Dymatize Nutrition 
Nº: 180 - Data: 17-05-2017 - Produto: Glutamine Micronized (300g) - Dymatize Nutrition 
Nº: 181 - Data: 17-05-2017 - Produto: Creatina Micronizada Monohidratada (300g) - Atlhetica Nutrition 
Nº: 182 - Data: 17-05-2017 - Produto: LA Linoleic Acid (120 cápsulas) - Atlhetica Nutrition 
Nº: 183 - Data: 17-05-2017 - Produto: Complete Multi-Vit (100 tabletes) - Atlhetica Nutrition 
Nº: 184 - Data: 17-05-2017 - Produto: Coqueteleira com Blender (600ml) - Integralmédica 
Nº: 185 - Data: 17-05-2017 - Produto: Coqueteleira Rosa Duas Doses (400ml) - Integralmédica 
Nº: 186 - Data: 17-05-2017 - Produto: Bcaa 2400 (100 cápsulas) - Max Titanium 
Nº: 187 - Data: 17-05-2017 - Produto: Bcaa 2400 (200 cápsulas) - Max Titanium 
Nº: 188 - Data: 17-05-2017 - Produto: Bcaa Fix Darkness (240 tabletes) - Integralmédica 
Nº: 189 - Data: 17-05-2017 - Produto: Choko Crunch Protein Meio Amargo Unidade (40g) - Probiótica 
Nº: 190 - Data: 17-05-2017 - Produto: Repor Salt (30 cápsulas) - Atlhetica Nutrition 
Nº: 191 - Data: 17-05-2017 - Produto: Bcaa Powder 2:1:1 (210g) - Atlhetica Nutrition 
Nº: 192 - Data: 17-05-2017 - Produto: Colágeno (120 cápsulas) - Meissen 
Nº: 193 - Data: 17-05-2017 - Produto: Bcaa Powder 2:1:1 (210g) - Atlhetica Nutrition  
Nº: 194 - Data: 17-05-2017 - Produto: Glutamax (20 sachês) - Vitafor 
Nº: 195 - Data: 17-05-2017 - Produto: Colagentek (Colágeno Hidrolisado) 30 sachês - Vitafor 
Nº: 196 - Data: 17-05-2017 - Produto: Caffeinex 420mg (60 cápsulas) - Atlhetica Nutrition 
Nº: 197 - Data: 17-05-2017 - Produto: Lipodrene (100 cápsulas) - Hi-Tech Pharmaceuticals 
Nº: 198 - Data: 17-05-2017 - Produto: Jet Fuel (120 cápsulas) - Gat 
Nº: 199 - Data: 17-05-2017 - Produto: Ribose Powder (300g) - Performance 
Nº: 200 - Data: 17-05-2017 - Produto: Xtherm Black (60 cápsulas) - Probiótica 
Nº: 201 - Data: 17-05-2017 - Produto: Shred Thermax Science (90 tabletes) - Performance Nutrition 
Nº: 202 - Data: 17-05-2017 - Produto: Choco Cream Super Protein (24 unidades) - Trio 
Nº: 203 - Data: 17-05-2017 - Produto: Nutwhey - Creme de Avelã Proteico (200g) - Integralmédica 
Nº: 204 - Data: 17-05-2017 - Produto: ZMA (90 cápsulas) - Atlhetica Nutrition 
Nº: 205 - Data: 17-05-2017 - Produto: Ultrum Multivitamínico Mineral (100 tabletes) - Performence 
Nº: 206 - Data: 17-05-2017 - Produto: Pasta de Amendoim Integral Crocante (1kg) - El Shaddai 
Nº: 207 - Data: 17-05-2017 - Produto: Galão Body Size (2,2 litros) - Integralmédica 
Nº: 208 - Data: 17-05-2017 - Produto: BCAA Pro Series (120 cáp.) - Atlhetica Nutrition 
Nº: 209 - Data: 17-05-2017 - Produto: Zma Pro (90 cápsulas) - Universal Nutrition 
Nº: 210 - Data: 17-05-2017 - Produto: Bcaa Premium Series (120 tabletes) - New Millen 
Nº: 211 - Data: 17-05-2017 - Produto: Creatina  Titanium (300g) - Max Titanium 
Nº: 212 - Data: 17-05-2017 - Produto: Monster Extreme Black (22 Packs) - Probiótica 
Nº: 213 - Data: 17-05-2017 - Produto: Pasta de Amendoim Integral (1,05Kg) - Power One 
Nº: 214 - Data: 17-05-2017 - Produto: Pasta de Amendoim Integral (com granulado de amendoim) 1,05Kg - Power One   
Nº: 215 - Data: 17-05-2017 - Produto: Nitric Max Amino Science (180 tabletes) - Performance 
Nº: 216 - Data: 17-05-2017 - Produto: Palatinose (300g) - Max Titanium 
Nº: 217 - Data: 17-05-2017 - Produto: Sineflex (150 cáp) - Power Supplements 
Nº: 218 - Data: 17-05-2017 - Produto: Dilatex (152 cáps) - Power Supplements 
Nº: 219 - Data: 17-05-2017 - Produto: Berinjela (120 cápsulas) - Meissen 
Nº: 220 - Data: 17-05-2017 - Produto: Platinum BCAA 8:1:1 (200 tabletes) - Muscletech 
Nº: 221 - Data: 17-05-2017 - Produto: Pasta de amendoim com açúcar de coco (500g) - Power One 
Nº: 222 - Data: 17-05-2017 - Produto: Brigadeiro Proteico (500g) - Power One 
Nº: 223 - Data: 17-05-2017 - Produto: T_SEK 
Nº: 224 - Data: 17-05-2017 - Produto: Kit Emagrecedor Sineflex + T_Sek 
Nº: 225 - Data: 17-05-2017 - Produto: Kit Emagrecimento Feminino Atlhetica 
Nº: 226 - Data: 17-05-2017 - Produto: Leucina (150g) - Probiótica 
Nº: 227 - Data: 17-05-2017 - Produto: Somatodrol (30 comprimidos) - Iridium Labs 
Nº: 228 - Data: 17-05-2017 - Produto: Diurox (148g) - New Millen 
Nº: 229 - Data: 17-05-2017 - Produto: Maca Peruana (180 cáp.) - Nutrigold 
Nº: 230 - Data: 17-05-2017 - Produto: ZMA (90 Cápsulas) - Max Titanium 
Nº: 231 - Data: 17-05-2017 - Produto: Sineflex Hardcore (150 cáp.) - Power Supplements 
Nº: 232 - Data: 17-05-2017 - Produto: Lipodrol Black (60 cáp.) - Integralmédica 
Nº: 233 - Data: 17-05-2017 - Produto: Creatina Titanium 150g - Max Titanium 
Nº: 234 - Data: 17-05-2017 - Produto: Kimera Termogênico (60 cápsulas) - Iridium Labs 
Nº: 235 - Data: 17-05-2017 - Produto: Bcaa Premium Series 240tbs - New Millen 
Nº: 236 - Data: 17-05-2017 - Produto: Black Bullet 60 cápsulas - Integralmédica 
Nº: 237 - Data: 17-05-2017 - Produto: Oxydrol (120 cápsulas) - Integralmédica 
Nº: 238 - Data: 17-05-2017 - Produto: Óleo de Coco Extravirgem 500ml - Copra 
Nº: 239 - Data: 17-05-2017 - Produto: Coqueteleira Nutraforce (600ml) 
Nº: 240 - Data: 17-05-2017 - Produto: Creatina (300g) Black Line - Optimum Nutrition 
Nº: 241 - Data: 17-05-2017 - Produto: Cloreto de magnésio P.A. (120 cápsulas) - Meissen 
Nº: 242 - Data: 17-05-2017 - Produto: Creatina Black Line (150g) - Optimum Nutrition 
Nº: 243 - Data: 17-05-2017 - Produto: Combo Auxilio Ganho de Massa Muscular 
Nº: 244 - Data: 17-05-2017 - Produto: Combo Auxílio Ganho de Massa Muscular 
