Nº: 1 - Data: 17-05-2017 - Produto: L- Glutamina 300g- New Millen 
Nº: 2 - Data: 17-05-2017 - Produto: Whey Micellar Casein 900g - New Millen 
Nº: 3 - Data: 17-05-2017 - Produto: C4 Beta Pump 225g - New Millen  
Nº: 4 - Data: 17-05-2017 - Produto: Iron Nitro Pack 44packs - New Millen 
Nº: 5 - Data: 17-05-2017 - Produto: Thermo 300 Cafeina 120caps - New Millen 
Nº: 6 - Data: 17-05-2017 - Produto: Creatina Monohidratada 120caps - New Millen 
Nº: 7 - Data: 17-05-2017 - Produto: Creatina Monohidratada 150g - New Millen 
Nº: 8 - Data: 17-05-2017 - Produto: Creatina Monohidratada 300g - New Millen 
Nº: 9 - Data: 17-05-2017 - Produto: NO2 Expand Oxido Nitrico 120caps - New Millen 
Nº: 10 - Data: 17-05-2017 - Produto: Hmb 2400mg 120caps - New Millen 
Nº: 11 - Data: 17-05-2017 - Produto: 100% Whey Protein 900g - New Millen 
Nº: 12 - Data: 17-05-2017 - Produto: Iron Man Protein Bar 12 Unidades - New Millen  
Nº: 13 - Data: 17-05-2017 - Produto: Whey 3W Nitro2 900g - New Millen 
Nº: 14 - Data: 17-05-2017 - Produto: Iso Whey Excell 90 Protein 900g - New Millen 
Nº: 15 - Data: 17-05-2017 - Produto: Mass 3W Premium 7200 refil 1500g - New Millen 
Nº: 16 - Data: 17-05-2017 - Produto: Mass 3W Premium 14400 refil 3000g - New Millen 
Nº: 17 - Data: 17-05-2017 - Produto: Mass 3400 Anticatabolic 3000g - New Millen 
Nº: 18 - Data: 17-05-2017 - Produto: Mass 3400 Anticatabolic 1500g - New Millen 
Nº: 19 - Data: 17-05-2017 - Produto: Caffeine Thermo Fast 90caps - New Millen 
Nº: 20 - Data: 17-05-2017 - Produto: MaltoDextrina 1000g - New Millen 
Nº: 21 - Data: 17-05-2017 - Produto: Cromo Picolinato 100caps - New Millen 
Nº: 22 - Data: 17-05-2017 - Produto: Amino Decanate 360g - MuscleMeds 
Nº: 23 - Data: 17-05-2017 - Produto: Animal Pak 30 packs - Universal 
Nº: 24 - Data: 17-05-2017 - Produto: Bcaa Complex 2200 Time Release 200tabs - Dymatize  
Nº: 25 - Data: 17-05-2017 - Produto: Bcaa Complex 2200 Time Release 400tabs - Dymatize 
Nº: 26 - Data: 17-05-2017 - Produto: Bcaa 1000 200caps - Optimum Nutrition 
Nº: 27 - Data: 17-05-2017 - Produto: Bcaa 1000 400caps - Optimum Nutrition 
Nº: 28 - Data: 17-05-2017 - Produto: Bcaa Pro 100caps - Universal 
Nº: 29 - Data: 17-05-2017 - Produto: Bcaa Stack 250gr - Universal 
Nº: 30 - Data: 17-05-2017 - Produto: Carnivor 1,753g - MuscleMeds 
Nº: 31 - Data: 17-05-2017 - Produto: Carnivor 909gr - MuscleMeds 
Nº: 32 - Data: 17-05-2017 - Produto: Carnivor Mass 2,772g - MuscleMeds 
Nº: 33 - Data: 17-05-2017 - Produto: Casein 100% Gold Standard 1814g - Optimum Nutrition 
Nº: 34 - Data: 17-05-2017 - Produto: Casein 100% Gold Standard 909g - Optimum Nutrition 
Nº: 35 - Data: 17-05-2017 - Produto: Creatina 120g - Universal 
Nº: 36 - Data: 17-05-2017 - Produto: Creatina 300g - Dymatize 
Nº: 37 - Data: 17-05-2017 - Produto: Creatina Powder 150g - Optimum Nutrition 
Nº: 38 - Data: 17-05-2017 - Produto: Creatina Powder 300g - Optimum Nutrition 
Nº: 39 - Data: 17-05-2017 - Produto: Daily Formula 100tbs - Universal 
Nº: 40 - Data: 17-05-2017 - Produto: Elite Whey Protein (2,268g) - Dymatize 
Nº: 41 - Data: 17-05-2017 - Produto: Elite Whey Protein (907g) - Dymatize 
Nº: 42 - Data: 17-05-2017 - Produto: Elite Gourmet 900g - Dymatize 
Nº: 43 - Data: 17-05-2017 - Produto: Gh Max 180tbs - Universal 
Nº: 44 - Data: 17-05-2017 - Produto: Glutamina Powder 150g - Optimum Nutrition 
Nº: 45 - Data: 17-05-2017 - Produto: Glutamina Powder 300g - Optimum Nutrition 
Nº: 46 - Data: 17-05-2017 - Produto: Gold Standard Whey 900g - Optimum Nutrition 
Nº: 47 - Data: 17-05-2017 - Produto: Gold Standard Whey 2270g - Optimum Nutrition 
Nº: 48 - Data: 17-05-2017 - Produto: Platinum Hydro Whey 790g - Optimum Nutrition 
Nº: 49 - Data: 17-05-2017 - Produto: Platinum Hydro Whey 1590g - Optimum Nutrition 
Nº: 50 - Data: 17-05-2017 - Produto: ISO 100 Hidrolyzed Whey 736g - Dymatize 
Nº: 51 - Data: 17-05-2017 - Produto: ISO 100 Hidrolyzed Whey 1361g - Dymatize 
Nº: 52 - Data: 17-05-2017 - Produto: Isofort 900g - Vitafor 
Nº: 53 - Data: 17-05-2017 - Produto: Isofort Bio Protein 2000g - Vitafor  
Nº: 54 - Data: 17-05-2017 - Produto: NOX3 180tbs - Universal 
Nº: 55 - Data: 17-05-2017 - Produto: Elite Primal 924g - Dymatize 
Nº: 56 - Data: 17-05-2017 - Produto: Ripped Fast 120caps - Universal 
Nº: 57 - Data: 17-05-2017 - Produto: Trac Hardcore 386g - MHP 
Nº: 58 - Data: 17-05-2017 - Produto: X Fit Trainer 226g - MHP 
Nº: 59 - Data: 17-05-2017 - Produto: Accel Gel unid. - Pacific Health 
Nº: 60 - Data: 17-05-2017 - Produto: Accelerade 933g -Pacific Health 
Nº: 61 - Data: 17-05-2017 - Produto: Assault 522g - Muscle Pharm 
Nº: 62 - Data: 17-05-2017 - Produto: Bio Casein 900g - Performance  
Nº: 63 - Data: 17-05-2017 - Produto: Chromium Picolinate 90caps - VitaminLife 
Nº: 64 - Data: 17-05-2017 - Produto: Diarium 120 comprimidos - VitaminLife 
Nº: 65 - Data: 17-05-2017 - Produto: Endurox R4 1050g - Pacific Health 
Nº: 66 - Data: 17-05-2017 - Produto: Endurox R4 2100g Pacific Health 
Nº: 67 - Data: 17-05-2017 - Produto: Glyco Waxy Maize 2Kg - Performance 
Nº: 68 - Data: 17-05-2017 - Produto: Glutamina Science Recovery 300g - Performance 
Nº: 69 - Data: 17-05-2017 - Produto: GlutaLean 500g - Labrada 
Nº: 70 - Data: 17-05-2017 - Produto: Hemorage Black Ultra Concentrado 316.5g (50 doses) - Nutrex Research 
Nº: 71 - Data: 17-05-2017 - Produto: HMB 120caps - Arnold Nutrition 
Nº: 72 - Data: 17-05-2017 - Produto: Jet Fuse Nox (1066g) - Gat 
Nº: 73 - Data: 17-05-2017 - Produto: Joint Max 120caps - Arnold Nutrition 
Nº: 74 - Data: 17-05-2017 - Produto: L-Carnitine 1000mg 60caps - Arnold Nutrition 
Nº: 75 - Data: 17-05-2017 - Produto: Lean Tea 120caps - Arnold Nutrition 
Nº: 76 - Data: 17-05-2017 - Produto: Lipo Cut Hardcore 60 caps - Arnold Nutrition 
Nº: 77 - Data: 17-05-2017 - Produto: Lipo Cut X Hers 120caps - Arnold Nutrition 
Nº: 78 - Data: 17-05-2017 - Produto: Lipo Cut X 120caps - Arnold Nutrition 
Nº: 79 - Data: 17-05-2017 - Produto: Nitraflex 300g - Gat 
Nº: 80 - Data: 17-05-2017 - Produto: Oxylin Pro 90caps - Arnold Nutrition 
Nº: 81 - Data: 17-05-2017 - Produto: Power Crunch 12 unidades - BNRG 
Nº: 82 - Data: 17-05-2017 - Produto: Ripped Extreme Red 160caps - Atlhetica Nutrition 
Nº: 83 - Data: 17-05-2017 - Produto: Ripped Extreme Yellow 120caps - Atlhetica Nutrition 
Nº: 84 - Data: 17-05-2017 - Produto: Super Charge Extreme 800g - Labrada 
Nº: 85 - Data: 17-05-2017 - Produto: Super NO Expander 400g - Arnold Nutrition 
Nº: 86 - Data: 17-05-2017 - Produto: Thermo Fire Hardcore 120tbs - Arnold Nutrition 
Nº: 87 - Data: 17-05-2017 - Produto: Thermo Fire 120tbs - Arnold Nutrition 
Nº: 88 - Data: 17-05-2017 - Produto: Vita Plate 60tbs - Arnold Nutrition 
Nº: 89 - Data: 17-05-2017 - Produto: Yellow Hornet 100caps - Stacker 2 
Nº: 90 - Data: 17-05-2017 - Produto: Zma Tst Booster 60caps - Arnold Nutrition 
Nº: 91 - Data: 17-05-2017 - Produto: Luva F1 - Rudel 
Nº: 92 - Data: 17-05-2017 - Produto: Luva F3 - Rudel 
Nº: 93 - Data: 17-05-2017 - Produto: Luva Sliper 2 - Rudel 
Nº: 94 - Data: 17-05-2017 - Produto: Luva Rubber - Rudel 
Nº: 95 - Data: 17-05-2017 - Produto: Luva NX - Rudel 
Nº: 96 - Data: 17-05-2017 - Produto: Luva KO - Rudel 
Nº: 97 - Data: 17-05-2017 - Produto: Halter Strap - Rudel 
Nº: 98 - Data: 17-05-2017 - Produto: Tala Straps - Rudel 
Nº: 99 - Data: 17-05-2017 - Produto: Munhequeira - Rudel 
Nº: 100 - Data: 17-05-2017 - Produto: Luva Boxe 10 Oz - Rudel 
Nº: 101 - Data: 17-05-2017 - Produto: Luva Boxe 12 Oz - Rudel 
Nº: 102 - Data: 17-05-2017 - Produto: Luva Boxe 14 Oz - Rudel 
Nº: 103 - Data: 17-05-2017 - Produto: Luva Boxe 16 Oz - Rudel 
Nº: 104 - Data: 17-05-2017 - Produto: Protetor Bucal Dualcolor C/ Estojo - Rudel 
Nº: 105 - Data: 17-05-2017 - Produto: Protetor Bucal Dualcolor S/ Estojo - Rudel 
Nº: 106 - Data: 17-05-2017 - Produto: Protetor Bucal Duplo S/ Estojo - Rudel 
Nº: 107 - Data: 17-05-2017 - Produto: Protetor Bucal Duplo C/ Estojo - Rudel 
Nº: 108 - Data: 17-05-2017 - Produto: Protetor Bucal C/ Estojo - Rudel 
Nº: 109 - Data: 17-05-2017 - Produto: Protetor Bucal S/ Estojo - Rudel 
Nº: 110 - Data: 17-05-2017 - Produto: Bandagem Elastica Rudel 
Nº: 111 - Data: 17-05-2017 - Produto: Colageno Hidrolisado 250g - Meissen 
Nº: 112 - Data: 17-05-2017 - Produto: Sbelt Whey Perfect Woman 900g - New Millen 
Nº: 113 - Data: 17-05-2017 - Produto: Oxylin Pro Powder 150g - Arnold Nutrition 
Nº: 114 - Data: 17-05-2017 - Produto: Oxylin Pro 7caps - Arnold Nutrition 
Nº: 115 - Data: 17-05-2017 - Produto: Glutamina Powder 600g - Optimum Nutrition 
Nº: 116 - Data: 17-05-2017 - Produto: Iso+ Whey Protein Isolada 900g - 4+ Nutrition 
Nº: 117 - Data: 17-05-2017 - Produto: Glutamina Science Recovery 1000g - Performance 
Nº: 118 - Data: 17-05-2017 - Produto: Platinum Tri-celle CASEIN 1030g - Optimum Nutrition 
Nº: 119 - Data: 17-05-2017 - Produto: Gold Standard Whey 4,540g - Optimum Nutrition 
Nº: 120 - Data: 17-05-2017 - Produto: 1 MR Vortex 150g - BPI Sports 
Nº: 121 - Data: 17-05-2017 - Produto: Bcaa Complex 5050 Powder 300g Dymatize 
Nº: 122 - Data: 17-05-2017 - Produto: Amino Science BCAA Powder 300g - Performance 
Nº: 123 - Data: 17-05-2017 - Produto: Hiper Mass Gainer (3,0 Kg) - Atlhetica Evolution 
Nº: 124 - Data: 17-05-2017 - Produto: Omega3 1000mg Fish Oil 120caps - VitaminLife 
Nº: 125 - Data: 17-05-2017 - Produto: Zinco Chelado 90caps - VitaminLife 
Nº: 126 - Data: 17-05-2017 - Produto: Testo HD 150g - Arnold Nutrition 
Nº: 127 - Data: 17-05-2017 - Produto: Lipo 6 Caffeine 60caps - Nutrex Research 
Nº: 128 - Data: 17-05-2017 - Produto: Vitamina C 1000 100 comprimidos - Sundown 
Nº: 129 - Data: 17-05-2017 - Produto: Vitamina E 400 100 comprimidos - Sundown 
Nº: 130 - Data: 17-05-2017 - Produto: Vitamia E 1000 30 comprimidos - Sundown 
Nº: 131 - Data: 17-05-2017 - Produto: Vitamina E 1000 50 comprimidos - Sundown 
Nº: 132 - Data: 17-05-2017 - Produto: OxyElite Pro 60caps - USP LABS   
Nº: 133 - Data: 17-05-2017 - Produto: B Complex 90caps - VitaminLife 
Nº: 134 - Data: 17-05-2017 - Produto: NOXI2 90tbs - Arnold Nutrition 
Nº: 135 - Data: 17-05-2017 - Produto: NOXI2 180tbs - Arnold Nutrition 
Nº: 136 - Data: 17-05-2017 - Produto: Gh Pro 100tbs - Arnold Nutrition 
Nº: 137 - Data: 17-05-2017 - Produto: Gh Pro 200tbs - Arnold Nutrition 
Nº: 138 - Data: 17-05-2017 - Produto: NO3 Beef 100tbs - Arnold Nutrition 
Nº: 139 - Data: 17-05-2017 - Produto: Chromium Picolinate 100caps - Universal 
Nº: 140 - Data: 17-05-2017 - Produto: Bcaa Concentrado AGE 120caps - Nutrilatina 
Nº: 141 - Data: 17-05-2017 - Produto: Bcaa Concentrado AGE 240caps - Nutrilatina 
Nº: 142 - Data: 17-05-2017 - Produto: Bcaa Ultraconcentrado AGE 120tbs - Nutrilatina 
Nº: 143 - Data: 17-05-2017 - Produto: Bcaa Ultraconcentrado AGE 240tbs - Nutrilatina 
Nº: 144 - Data: 17-05-2017 - Produto: Power Bcaa 120caps - New Millen 
Nº: 145 - Data: 17-05-2017 - Produto: Brutal Force 240caps - New Millen 
Nº: 146 - Data: 17-05-2017 - Produto: Mass Beef Protein 1500g - New Millen 
Nº: 147 - Data: 17-05-2017 - Produto: Albumina 100% Natural 500g - New Millen 
Nº: 148 - Data: 17-05-2017 - Produto: Mass Beef Protein 3000g - New Millen 
Nº: 149 - Data: 17-05-2017 - Produto: Dextrose 1000g - New Millen 
Nº: 150 - Data: 17-05-2017 - Produto: Zma Cr 100caps - New Millen 
Nº: 151 - Data: 17-05-2017 - Produto: Beef Protein 900g - New Millen 
Nº: 152 - Data: 17-05-2017 - Produto: Albumina Maxxi 500g - New Millen 
Nº: 153 - Data: 17-05-2017 - Produto: AminoNO2 38000 Nitro 480ml - New Millen 
Nº: 154 - Data: 17-05-2017 - Produto: IGF 1 Hgh 150ml - New Millen  
Nº: 155 - Data: 17-05-2017 - Produto: Thermo Fuel 500ml - New Millen 
Nº: 156 - Data: 17-05-2017 - Produto: Leucine e Hmb Double 2000mg 120tbs - New Millen 
Nº: 157 - Data: 17-05-2017 - Produto: Creatina Ethyl Ester 60tbs - New Millen 
Nº: 158 - Data: 17-05-2017 - Produto: Iso Hydro Beef Protein 900g - New Millen 
Nº: 159 - Data: 17-05-2017 - Produto: L Carnetina Iron Man 500ml - New Millen 
Nº: 160 - Data: 17-05-2017 - Produto: Whey Protein Iron Man - 900g - New Millen 
Nº: 161 - Data: 17-05-2017 - Produto: Bcaa Powder Iron Man - 200g - New Millen 
Nº: 162 - Data: 17-05-2017 - Produto: LipoFat Perfect Woman 120caps - New Millen  
Nº: 163 - Data: 17-05-2017 - Produto: Sbelt Shake Diet 420g - New Millen 
Nº: 164 - Data: 17-05-2017 - Produto: Bcaa Power 4800 120tbs - New Millen 
Nº: 165 - Data: 17-05-2017 - Produto: Protein Complex Premium 900g - New Millen 
Nº: 166 - Data: 17-05-2017 - Produto: Kit Ganho de Peso 3 
Nº: 167 - Data: 17-05-2017 - Produto: Kit Ganho de Massa da Optimum Nutrition 
Nº: 168 - Data: 17-05-2017 - Produto: CarnPro 900g Probiotica  
Nº: 169 - Data: 17-05-2017 - Produto: Bcaa 1000 60caps Optimum Nutrition 
Nº: 170 - Data: 17-05-2017 - Produto: Isopure Low Carb (1361g) Natures Best 
Nº: 171 - Data: 17-05-2017 - Produto: Alert 8-Hour - 100 tablets - MHP 
Nº: 172 - Data: 17-05-2017 - Produto: BCAA 3300 Timed Release - 120 tabletes - MHP 
Nº: 173 - Data: 17-05-2017 - Produto: Albumina 500gr - Nutraforce 
Nº: 174 - Data: 17-05-2017 - Produto: Creatina Pura Micronizada 150gr - Nutraforce 
Nº: 175 - Data: 17-05-2017 - Produto: Creatina Pura Micronizada 300gr - Nutraforce 
Nº: 176 - Data: 17-05-2017 - Produto: Glutamina Pura 150gr - Nutraforce 
Nº: 177 - Data: 17-05-2017 - Produto: Thermo Force Black 120caps - Nutraforce 
Nº: 178 - Data: 17-05-2017 - Produto: Iso 100 Hydrolyzed Whey 2,257g - Dymatize 
Nº: 179 - Data: 17-05-2017 - Produto: Whey Protein 100% Pure 900gr - Nutraforce 
Nº: 180 - Data: 17-05-2017 - Produto: Whey Protein Force (Refil) 500gr - Nutraforce 
Nº: 181 - Data: 17-05-2017 - Produto: Glutamina Pura 300gr - Nutraforce 
Nº: 182 - Data: 17-05-2017 - Produto: Nitro Force 270gr Advanced Pump - Nutraforce 
Nº: 183 - Data: 17-05-2017 - Produto: NO X-Force (AAKG + Taurina) 120caps - Nutraforce 
Nº: 184 - Data: 17-05-2017 - Produto: Multimax Complex 90caps - Max Titanium 
Nº: 185 - Data: 17-05-2017 - Produto: M-Tor Leucine 100gr - Max Titanium 
Nº: 186 - Data: 17-05-2017 - Produto: Mass Titanium 17500 (3000g) - Max Titanium 
Nº: 187 - Data: 17-05-2017 - Produto: Total Whey NO2 2000g - Max Titanium 
Nº: 188 - Data: 17-05-2017 - Produto: Top Whey 3W 900g - Max Titanium 
Nº: 189 - Data: 17-05-2017 - Produto: Isofusion Premium Whey Isolate (726g) - Gaspari Nutrition 
Nº: 190 - Data: 17-05-2017 - Produto: Isofusion Premium Whey Isolate (1364g)- Gaspari Nutrition 
Nº: 191 - Data: 17-05-2017 - Produto: Myofusion Elite Protein Series 907gr - Gaspari Nutrition 
Nº: 192 - Data: 17-05-2017 - Produto: Super Pump 3.0 457gr - Gaspari Nutrition 
Nº: 193 - Data: 17-05-2017 - Produto: AminoLast 420gr - Gaspari Nutrition 
Nº: 194 - Data: 17-05-2017 - Produto: Matrix 2.0 907gr - Syntrax 
Nº: 195 - Data: 17-05-2017 - Produto: Nectar 907gr - Syntrax 
Nº: 196 - Data: 17-05-2017 - Produto: MyoFusion Advanced Protein 907gr - Gaspari Nutrition 
Nº: 197 - Data: 17-05-2017 - Produto: Zma 90caps  - Now Food 
Nº: 198 - Data: 17-05-2017 - Produto: 3 Whey Protein Force 900gr - Nutraforce 
Nº: 199 - Data: 17-05-2017 - Produto: 100% Pura Batata Doce Refil (1Kg) - Atlhetica Nutrition 
Nº: 200 - Data: 17-05-2017 - Produto: Methyldrene 25 - Cloma Pharma 
Nº: 201 - Data: 17-05-2017 - Produto: X TEA (20 sticks) - Atlhetica Nutrition 
Nº: 202 - Data: 17-05-2017 - Produto: L-Carnitine 2300 (480ml) - Atlhetica Evolution 
Nº: 203 - Data: 17-05-2017 - Produto: Whey Protein Pro Series Refil (1,8Kg) - Atlhetica Nutrition  
Nº: 204 - Data: 17-05-2017 - Produto: 4 Whey Tech - Evolution Series - (907g) 
Nº: 205 - Data: 17-05-2017 - Produto: FIRST Pasta de Amendoim com Whey Protein 500g - Santa Helena 
Nº: 206 - Data: 17-05-2017 - Produto: 4 Whey Tech - Refil - 1800g - Atlhetica Nutrition 
Nº: 207 - Data: 17-05-2017 - Produto: Top Whey Protein 3W Refil (1,8Kg) - MAX Titanium 
Nº: 208 - Data: 17-05-2017 - Produto: AmendoWhey 400gr - New Millen 
Nº: 209 - Data: 17-05-2017 - Produto: Beta HD Extreme Intense (180g) - Atlhetica Nutrition 
Nº: 210 - Data: 17-05-2017 - Produto: Caffeinex 420mg (60 caps) - Atlhetica Nutrition 
Nº: 211 - Data: 17-05-2017 - Produto: Ella Collagen Caps (120 caps) - Atlhetica Nutrition 
Nº: 212 - Data: 17-05-2017 - Produto: Protein Premium Refil (1,8Kg) - Atlhetica Nutrition 
Nº: 213 - Data: 17-05-2017 - Produto: Kit Aumento de Massa Muscular II 
Nº: 214 - Data: 17-05-2017 - Produto: Kit Aumento de Massa Muscular III 
Nº: 215 - Data: 17-05-2017 - Produto: Kit Ganho de Peso IV 
Nº: 216 - Data: 17-05-2017 - Produto: 100% Pure Waxy Maize Refil (1Kg) - Atlhetica Nutrition 
Nº: 217 - Data: 17-05-2017 - Produto: 100% Pure Waxy Maize (2Kg) - Atlhetica Nutrition 
Nº: 218 - Data: 17-05-2017 - Produto: L-Carnitine 1000 (60 tabletes) - Atlhetica Nutrition 
Nº: 219 - Data: 17-05-2017 - Produto: 100% Pure Casein Protein (900g) - Atlhetica Nutrition 
Nº: 220 - Data: 17-05-2017 - Produto: Glutamine Micronized (1Kg) - Dymatize Nutrition 
Nº: 221 - Data: 17-05-2017 - Produto: Glutamine Micronized (300g) - Dymatize Nutrition 
Nº: 222 - Data: 17-05-2017 - Produto: Elasti Joint (350g) - Labrada 
Nº: 223 - Data: 17-05-2017 - Produto: W-Lady (907g) - Integralmedica 
Nº: 224 - Data: 17-05-2017 - Produto: Creatina Micronizada Monohidratada (300g) - Atlhetica Nutrition 
Nº: 225 - Data: 17-05-2017 - Produto: Complete Multi-Vit (100 tabletes) - Atlhetica Nutrition 
Nº: 226 - Data: 17-05-2017 - Produto: Coqueteleira Neon Blender (600ml) - Atlhetica Nutrition 
Nº: 227 - Data: 17-05-2017 - Produto: Kit Ganho de Peso 5 
Nº: 228 - Data: 17-05-2017 - Produto: Collagen Diet (200g) - Atlhetica Nutrition 
Nº: 229 - Data: 17-05-2017 - Produto: Maltodextrina 1Kg - Atlhetica Nutrition 
Nº: 230 - Data: 17-05-2017 - Produto: Carnivor Protein Bar Unidade (91g) - Muscle Meds 
Nº: 231 - Data: 17-05-2017 - Produto: Protein Crisp Bar (Caixa com 12 unidades) - Integralmedica 
Nº: 232 - Data: 17-05-2017 - Produto: Bcaa Powder 2:1:1 (210g) - Atlhetica Nutrition 
Nº: 233 - Data: 17-05-2017 - Produto: Proplex (1,020Kg) - Atlhetica Nutrition 
Nº: 234 - Data: 17-05-2017 - Produto: Noxi Fusion (1100g) - Arnold Nutrition 
Nº: 235 - Data: 17-05-2017 - Produto: L-Carn Liquid (480ml) - Integralmedica 
Nº: 236 - Data: 17-05-2017 - Produto: Bcaa Powder 2:1:1 (210g) - Atlhetica Nutrition  
Nº: 237 - Data: 17-05-2017 - Produto: Blend Whey (900g) - Vitafor 
Nº: 238 - Data: 17-05-2017 - Produto: Femini Whey Protein (900g) - Max Titanium 
Nº: 239 - Data: 17-05-2017 - Produto: Power Crunch Protein Bar (Unidade) - BNRG 
Nº: 240 - Data: 17-05-2017 - Produto: Puro Whey 909g - Performance Nutrition 
Nº: 241 - Data: 17-05-2017 - Produto: Arnold 3D (300g) - Arnold Nutrition 
Nº: 242 - Data: 17-05-2017 - Produto: Micellar (907g) - Syntrax 
Nº: 243 - Data: 17-05-2017 - Produto: Whey Shake (2270g) - Syntrax 
Nº: 244 - Data: 17-05-2017 - Produto: Ribose Powder (300g) - Performance 
Nº: 245 - Data: 17-05-2017 - Produto: Shred Thermax Science (90 tabletes) - Performance Nutrition 
Nº: 246 - Data: 17-05-2017 - Produto: Choco Cream Super Protein (24 unidades) - Trio 
Nº: 247 - Data: 17-05-2017 - Produto: L-Carnitine 1400 (480ml) - Atlhetica Nutrition 
Nº: 248 - Data: 17-05-2017 - Produto: Bcaa 2 1 1 (210g) - Atlhetica Nutrition 
Nº: 249 - Data: 17-05-2017 - Produto: Pasta de Amendoim Integral Crocante (1kg) - El Shaddai 
Nº: 250 - Data: 17-05-2017 - Produto: Luva Palmex - Rudel 
Nº: 251 - Data: 17-05-2017 - Produto: Bcaa Premium Series (120 tabletes) - New Millen 
Nº: 252 - Data: 17-05-2017 - Produto: Creatina  Titanium (300g) - Max Titanium 
Nº: 253 - Data: 17-05-2017 - Produto: Pasta de Amendoim Integral (1,05Kg) - Power One 
Nº: 254 - Data: 17-05-2017 - Produto: Pepto Fuel Hidrowhey (909g) - Performance 
Nº: 255 - Data: 17-05-2017 - Produto: Pasta de Amendoim Integral (com granulado de amendoim) 1,05Kg - Power One   
Nº: 256 - Data: 17-05-2017 - Produto: Nitric Max Amino Science (180 tabletes) - Performance 
Nº: 257 - Data: 17-05-2017 - Produto: Palatinose (300g) - Max Titanium 
Nº: 258 - Data: 17-05-2017 - Produto: BCAA 2:1:1 Premium (210g)  - New Millen 
Nº: 259 - Data: 17-05-2017 - Produto: Bio Whey Protein (909g) - Performance 
Nº: 260 - Data: 17-05-2017 - Produto: Platinum BCAA 8:1:1 (200 tabletes) - Muscletech 
Nº: 261 - Data: 17-05-2017 - Produto: Platinum 100% Whey (907g) - Muscletech 
Nº: 262 - Data: 17-05-2017 - Produto: Brigadeiro Proteico (500g) - Power One 
Nº: 263 - Data: 17-05-2017 - Produto: Natural Vegan (500g) - Max Titanium 
Nº: 264 - Data: 17-05-2017 - Produto: A-Bomb (243g) -MHP 
Nº: 265 - Data: 17-05-2017 - Produto: T_SEK 
Nº: 266 - Data: 17-05-2017 - Produto: Kit Emagrecedor Sineflex + T_Sek 
Nº: 267 - Data: 17-05-2017 - Produto: Kit Emagrecimento Feminino Atlhetica 
Nº: 268 - Data: 17-05-2017 - Produto: Kit Emagrecimento Feminino New Millen 
Nº: 269 - Data: 17-05-2017 - Produto: Somatodrol (30 comprimidos) - Iridium Labs 
Nº: 270 - Data: 17-05-2017 - Produto: Diurox (148g) - New Millen 
Nº: 271 - Data: 17-05-2017 - Produto: Whey Pro (1Kg) - Max Titanium 
Nº: 272 - Data: 17-05-2017 - Produto: Creatina Titanium 150g - Max Titanium 
Nº: 273 - Data: 17-05-2017 - Produto: Bcaa Premium Series 240tbs - New Millen 
Nº: 274 - Data: 17-05-2017 - Produto: Nitro Tech 100% Whey Gold (1.13Kg) - Muscletech 
Nº: 275 - Data: 17-05-2017 - Produto: Combo Massa Muscular Premium  
Nº: 276 - Data: 17-05-2017 - Produto: Combo Ganho de Peso Nutraforce 
Nº: 277 - Data: 17-05-2017 - Produto: Combo Max Ganho de Peso 
Nº: 278 - Data: 17-05-2017 - Produto: Combo Integral Ganho de Massa Muscular 
Nº: 279 - Data: 17-05-2017 - Produto: Coqueteleira Nutraforce (600ml) 
Nº: 280 - Data: 17-05-2017 - Produto: Bcaa Drink 4:1:1 (280g) - Max Titanium 
Nº: 281 - Data: 17-05-2017 - Produto: Creatina (300g) Black Line - Optimum Nutrition 
Nº: 282 - Data: 17-05-2017 - Produto: Creatina Black Line (150g) - Optimum Nutrition 
Nº: 283 - Data: 17-05-2017 - Produto: Combo Ganho de Peso New Millen 
Nº: 284 - Data: 17-05-2017 - Produto: Combo Auxilio Ganho de Massa Muscular 
